﻿{
  "localRestful": "http://localhost:8080/hep3-rest/service/rest",
  "localUrl": "http://localhost:55555",
  "restful": "https://hep3dev.emf-infopro-test.ch/java_hep3-rest/service/rest",
  "url": "https://hep3dev.emf-infopro-test.ch",
  "secret": "fsdi43ZU&fZufh76FGZ/56",
  "mail": {
    "host": "hep3dev.emf-infopro-test.ch",
    "user": "no-reply@hep3dev.emf-infopro-test.ch",
    "pass": "U%7G+eKqZh[l"
  },
  "jwt": {
    "secret": ")=hFklj4lHUI0hä_fjd/7",
    "issuer": "hep3dev.emf-infopro-test.ch",
    "algorithm": "HS512",
    "exp": "30d"
  },
  "jwtCOMPER": {
    "secret": "-----BEGIN RSA PRIVATE KEY-----\nMIIJKgIBAAKCAgEA84GSdGUmQdv0SCkjhqG9sBxlRhYDbErhrLzJlM0ZxKvABHr2\noItcDNeqHihDzL1bJ4pgTPjKOaKiuGjZ3fLG9pUs3Yzvz2t6KuxD8pycq0jdH07j\n/PzdtvArv03JXe/P4mb5HotqxPXXkOm3F7/8WJo88BF3aDLGDswuLW1wLfnRDTd4\n3Esx5IVCOg9BmZmx4H/+bcHIztPuwPjOEhb/zsXQuPE+jbcgb2s4Szfh0MIP/bUN\n36R56k/n/o9qraJpv5uvBJ3tShonE1hmSb435kZXmdjsaRUoGJ8Jp7PHxDZ0z8Cc\nuBdwGKPP+l/ITQE165xeO2xARQu7Cp1Kob8U01sIs/CCqmchIUXIq7zH3DtoW+jQ\niBhNl7nFEea/KDJMCfL1hxhT9ZfqhwoZqLY/aYF0rpDISCPBUw1HDVHzlmLv6UsK\nfSJOHzSotKFZ4gaS/lVLCuqbag5584nww2+IsuSz1J2kdLAcZcipWKILCj2b9g2c\nGICProxw3wH+5P03PuIR72VkdFuEtmdZpcJKu/t2gNv77YIyZssNvoOw9qrKhlLe\nicKXP7TMYlb0TbaJtU01Z6+6HIv1472Yl3YE9rEhzDdBtfAUXyMmhoE060nlL+zq\n4s1aNjWlQ9kcnFanCpGo0ZhUrbmoDZ9zlXERJj3HjaXTejMMJ5IciQPkCeECAwEA\nAQKCAgEAv4aLhedFFwoE8nkBC1TOGOXMtjp8SMIBDNeUiehkOy+HoT6CGzZhmWxL\nztqGsVPCjbAmHISWsox8BiXaLttUqQAeQMgomvGDLp2UuA98nrB507U+V28giFIR\nZq+tEaiczwuFKAQqX26qNb3OF+0Wcy4lfgGO9LLy2xK3w11PnanfRtD5y/OM85vo\nwjfbtg+QO+8QVI3V/u/s23UWyF20qJMonz6In/iIl3oy1d7HS2ZII5ozplL83VIq\nPCvbkWSsXlv6Zdw9lkpJr8qY8ame2A09u7FGCUTtu6fjdTdPicH3UKzD13v/3DGE\nVP7fUcoA+ieMapqzVltqq2eaGuxrWGV9rqquQVohpkAugy40v2CuEWZzFb9d8ZM6\n+l4NzkLv3DUaulcW0C/L5YC8fv5NnZhPx7YOP0tQURd4L30b5uDDp6I95NdLDqfl\nNATsnalUjzazOhDG7FMMOn/XAgXurms/VHgtTO0iTcALIlrBPn+5qFs0+U/evKCb\n9jMCtstrlEQ3USUVDM+d7DgCnOQTh5LQMgqfb7paRo5Spt6ZO6vF/O6kFells1Bh\nriYzQ3UCnl8fATI/9mLq15DJTer4/wLK+U7fhrlECEOl9HZXO69Yo+ytSSdAHb2q\nvzVmRZYjeUxDOFBU/dzYDB2tuflcbHhVqRP3No8RbcNPfJJKjBECggEBAPtda7ka\nh7t7BR4mgy08Lx7Wk0J3OOADBcQswwxcwZScC4KVy6La3cxF+D028GVZSluKrlO1\n52CGBmSMsrAMC0vPHh+FiYhlXb0eTzpSK2SF4qE36agYqOGuDl0bIG2jORzxgZGK\nEELuLvF44Ew7xGDbS9+1XE5Mxk+ytsPvpl3Vvz6Hhlk+wEpnzrBMOcrwaODs6W4R\nMC46OJu1YiR0x+PsS4A7cZhL62xTxNogIG5TmfKL377KQVMrAQ22kkFiVnvDKOaJ\nk2WHSbe+vF0Xa7kPD4mXgT83LVZ2z6HJndbm730e2pc8KXCfg2+TjHTG6y/KrMjb\nuSFNRDtmN/b+1X0CggEBAPf/DbYMguBleJ0xYEEybFakxlFpfmhm2o+6QoqVl6KR\nm+6HftxJE7XKXXYojZTmZnmda3pDJU2EMYJYwDAMlRWTcdIxLc0Da5bW1V96Zzdt\nf0rLyN0nGu/RJZpnhhGfDR37IX2YVpQC3lqCiXCYWpUAyi2YwtE2vfyk7yEviCI6\nKWjFY4ms8T5v43ga2emiOqNEV3Gk8Nwcm+X8fhPLvQronajo6JIDZKljq2OVNdj/\n7BNsVEeu6IhAurrN9TFXztaoGsL0tNh/wZ/Cb0pSo1Xf2WmVDouNkpl2J1YfgNBU\nOYj/P0MFvjVjD75EEaGoP9QYMjf5fB2ARK4ohKlk4zUCggEBALj/9sqTVhaL4iZg\nnebrBpshvdwLNxbX4qSRdTRiCC9B8c64RNmlT9yKGrui9acB4pIhLVB67sHBom7a\nhqC/HIk89KSqeaCjSixoZFM+KqWfTD7vkc6f55vBqNypnGJU4TIGJSBihrlb57zd\nA+fXjR7kB6GsLzWJl+MMWys19DHXoRt6T0zbvFaGtD5Yu6g67FWux9a0W8uKGiOv\niX3fXUbIoIDOPzqhlbFyrc0EHBpW+VTj0VbwMMfvPKVFG7t3jsMjzbRuyMbOnVjY\nznWNSUE4bm0LzpoiGAItC3+9jaee6+Aglyz7oFw9alTyOUuxI2NXPXfPDyANaAx3\nnPTydVkCggEBANnowTF/2Ng4ET1+j2d6WPvhGWmb2rj993pnXeTMAUuVyoBTisMh\nazJHuMwEYjO+J7kg+7mYmoR8bcxtE6Kky7MDtfXNxMLqCHWoHCEjOuLXUgx09/Br\nVh33lqUP5hxBt5LqgckMPLcdtietn/rRxHY9FWnvWu/evB3tBzoPu/znQk+PciEd\nV3VXd3ankWbbZ87iVDvFhObENLBnppjaYyfcsfwje4ghdyfoLkb4azJb3iJLA9tg\n824WAn32T0amM1cmqy03PFkoGQi6HnQeHOtuIGnH0doJ8hDqYzInyFZGS6/3KK1J\ntJLQkprK0PtNDZjeEfJhRA/gD3lAnSEDRykCggEAO0sBGjm/hF/nCl4p02VB6COA\n50D+K3M6maAougqo2kw/twP1pGWLLBjIS6JJHsqYLTZf4YQQFgFfgFGHT4/GY7sK\nOXJmjfgzw5ghAMAJ+fzZLWgKz062e8y+jH1xTy43Q6MG9LqABNNIRG4PqU7tkTHs\nvFB9cwbpb+wb94FZW6KmlAEaTlyjejngzZCDQnETpYTJILOUNiWdTj3kLdlJxqSd\nb7bEHRO5j0noiM2OkXmEyZRlp65LcSIwYhTLo/NPZ+G6AU745xETFQYOzCWCFaWz\n9sIREkcWyTtDgdBaW7W6aAi2dDrtqArv9hIe/DkuxKigKIc+JTfSpIkYYhjvWQ==\n-----END RSA PRIVATE KEY-----",
    "algorithm": "RS256",
    "exp": "30d"
  },
  "salt": {
    "password_partie_1": "fI3uv2wAidBtgMxh9pUT",
    "password_partie_2": "543uG24BRZgDiMLU52hR"
  },
  "about": {
    "node": "V2.0",
    "framework": "V2.0",
    "contact": "sturzeneggere@studentfr.ch"
  }
}
