{
  "user": "gameshub:",
  "role": "learner",
  "fwid": 291,
  "username": "gameshub:",
  "platform": "gameshub",
  "homepage": "https://hep3.emf-infopro.ch/",
  "platformGroupId": "gameshub:group_",
  "objectives": [
    [
      "Lire et comprendre des textes courts (processus d'intégration)",
      "Pre_requis"
    ]
  ]
}