{
  "method": "get",
  "maxBodyLength": "Infinity",
  "url": "https://compervm-dev.liris.cnrs.fr/cpe/api/old/recommandations/",
  "headers": {
    "Authorization": "Bearer ",
    "Cookie": "PHPSESSID=vdvurfps68d2a8sonc10fe7p97"
  }
}